"","year","low estimate","mid estimate","high estimate"
"1",1990,1.09139364212751e-11,1.45519152283669e-11,3.63797880709171e-11
"2",1991,0.180846727282187,0.261848181835376,0.101773878814129
"3",1992,0.367085090918408,0.534047272740281,0.225745818213909
"4",1993,0.558715090917758,0.81659727274382,0.371915818199341
"5",1994,0.755736727280237,1.10949818183144,0.54028387881408
"6",1995,0.958150000007663,1.41275000001406,0.730850000029022
"7",1996,1.16595490909822,1.72635272728439,0.943614181836892
"8",1997,1.3791514545519,2.05030636364972,1.17857642426679
"9",1998,1.59773963637053,2.38461090910278,1.43573672728962
"10",1999,1.82171945455229,2.72926636365082,1.71509509093448
"11",2000,2.05109090909718,3.08427272728295,2.01665151517955
"12",2001,2.2858540000052,3.44963000001371,2.34040600001754
"13",2002,2.52600872727817,3.82533818182492,2.68635854547756
"14",2003,2.77155509091426,4.2113972727384,3.05450915153051
"15",2004,3.02249309091349,4.60780727273595,3.44485781819822
"16",2005,3.27882272727766,5.01456818182851,3.85740454548068
"17",2006,3.54054400000314,5.43168000000514,4.29214933334879
"18",2007,3.8076569090972,5.85914272728405,4.74909218183893
"19",2008,4.08016145455258,6.2969563636434,5.228233090922
"20",2009,4.35805763636927,6.74512090910139,5.72957206061983
"21",2010,4.6413454545509,7.20363636363982,6.25310909091786
"22",2011,4.93002490909566,7.67250272728052,6.79884418183065
"23",2012,5.22409600000537,8.1517200000053,7.36677733335091
"24",2013,5.52355872727821,8.64128818182508,7.9569085454641
"25",2014,5.82841309091418,9.14120727272893,8.56923781819205
"26",2015,6.13865909091328,9.65147727273506,9.2037651515202
"27",2016,6.4542967272755,10.1720981818216,9.86049054546311
"28",2017,6.77532600000268,10.7030700000068,10.5394140000135
"29",2018,7.10174690909298,11.2443927272834,11.2405355151568
"30",2019,7.43355945454823,11.7960663636404,11.9638550909222
"31",2020,7.77076363636661,12.3580909090997,12.7093727272731
"32",2021,8.11335945454812,12.9304663636394,13.4770884242535
"33",2022,8.46134690909275,13.5131927272814,14.267002181834
"34",2023,8.81472600000416,14.1062700000039,15.0791140000074
"35",2024,9.17349672727687,14.7096981818249,15.9134238787956
"36",2025,9.53765909091271,15.3234772727301,16.769931818184
"37",2026,9.9072130909135,15.9476072727339,17.6486378181871
"38",2027,10.2821587272756,16.5820881818217,18.5495418787978
"39",2028,10.6624960000026,17.2269200000046,19.4726440000013
"40",2029,11.0482249090928,17.8821027272752,20.4179441818269
"41",2030,11.4393454545479,18.5476363636408,21.3854424242381
"42",2031,11.8358576363662,19.2235209090904,22.3751387272787
"43",2032,12.2377614545476,19.9097563636387,23.3870330909194
"44",2033,12.6450569090921,20.6063427272711,24.4211255151531
"45",2034,13.0577440000015,21.3132800000021,25.4774160000088
"46",2035,13.4758227272741,22.0305681818172,26.5559045454502
"47",2036,13.8992930909099,22.7582072727309,27.6565911515208
"48",2037,14.3281550909087,23.4961972727251,28.7794758181772
"49",2038,14.7624087272725,24.2445381818216,29.9245585454555
"50",2039,15.2020539999994,25.0032299999984,31.0918393333413
"51",2040,15.6470909090931,25.772272727274,32.2813181818128
"52",2041,16.0975194545481,26.5516663636336,33.4929950909136
"53",2042,16.5533396363662,27.3414109090918,34.7268700606
"54",2043,17.0145514545475,28.1415063636341,35.9829430909085
"55",2044,17.4811549090919,28.9519527272751,37.2612141818245
"56",2045,17.9531500000012,29.7727499999964,38.5616833333261
"57",2046,18.4305367272736,30.6038981818201,39.884350545457
"58",2047,18.9133150909092,31.4453972727242,41.2292158181735
"59",2048,19.4014850909098,32.297247272727,42.5962791515121
"60",2049,19.8950467272734,33.1594481818211,43.9855405454582
"61",2050,20.3940000000002,34.0319999999992,45.3969999999972
"62",2051,20.8983449090902,34.9149027272761,46.830657515151
"63",2052,21.408081454545,35.808156363637,48.2865130908976
"64",2053,21.923209636363,36.7117609090928,49.7645667272664
"65",2054,22.4437294545442,37.6257163636365,51.2648184242425
"66",2055,22.9696409090902,38.5500227272751,52.7872681818117
"67",2056,23.5009439999976,39.4846799999978,54.3319159999955
"68",2057,24.0376387272754,40.4296881818191,55.8987618787796
"69",2058,24.5797250909109,41.3850472727245,57.4878058181785
"70",2059,25.1272030909113,42.3507572727285,59.0990478181848
"71",2060,25.680072727273,43.3268181818166,60.732487878784
"72",2061,26.2383340000015,44.3132299999997,62.388125999998
"73",2062,26.8019869090913,45.3099927272706,64.0659621818049
"74",2063,27.371031454546,46.3171063636364,65.7659964242412
"75",2064,27.9454676363639,47.3345709090863,67.488228727263
"76",2065,28.5252954545449,48.3623863636349,69.2326590908997
"77",2066,29.1105149090909,49.4005527272675,70.9992875151511
"78",2067,29.7011259999999,50.4490699999988,72.7881139999881
"79",2068,30.2971287272721,51.5079381818141,74.5991385454472
"80",2069,30.8985230909075,52.5771572727281,76.4323611514992
"81",2070,31.5053090909078,53.6567272727225,78.2877818181732
"82",2071,32.1174867272712,54.7466481818155,80.1654005454548
"83",2072,32.7350559999977,55.8469199999963,82.0652173333219
"84",2073,33.3580169090892,56.9575427272721,83.9872321818111
"85",2074,33.9863694545475,58.0785163636319,85.9314450908932
"86",2075,34.6201136363652,59.2098409090904,87.8978560605974
"87",2076,35.2592494545461,60.351516363633,89.886465090909
"88",2077,35.9037769090919,61.5035427272705,91.8972721818063
"89",2078,36.5536960000009,62.6659199999958,93.9302773333329
"90",2079,37.2090067272729,63.8386481818161,95.9854805454452
"91",2080,37.86970909091,65.0217272727277,98.0628818181794
"92",2081,38.5358030909083,66.2151572727234,100.162481151514
"93",2082,39.2072887272734,67.4189381818214,102.284278545449
"94",2083,39.8841659999998,68.6330699999962,104.428273999998
"95",2084,40.5664349090912,69.8575527272733,106.59446751514
"96",2085,41.2540954545439,71.0923863636344,108.782859090905
"97",2086,41.9471476363633,72.3375709090906,110.993448727277
"98",2087,42.645591454544,73.5931063636344,113.226236424234
"99",2088,43.3494269090897,74.8589927272733,115.481222181814
"100",2089,44.0586539999986,76.1352299999962,117.758405999994
"101",2090,44.7732727272742,77.4218181818178,120.057787878788
"102",2091,45.4932830909111,78.7187572727235,122.379367818168
"103",2092,46.2186850909111,80.0260472727277,124.723145818178
"104",2093,46.9494787272743,81.3436881818161,127.089121878787
"105",2094,47.6856640000005,82.6716799999995,129.47729599999
"106",2095,48.4272409090918,84.0100227272706,131.887668181815
"107",2096,49.1742094545461,85.3587163636366,134.320238424232
"108",2097,49.9265696363636,86.7177609090868,136.775006727272
"109",2098,50.6843214545461,88.0871563636356,139.251973090912
"110",2099,51.4474649090917,89.4669027272685,141.751137515144
"1",2100,52.2160000000008,90.8570000000018,144.272500000002
"2",2101,53.1592950000008,92.3571800000018,146.409120000002
"3",2102,54.1025900000009,93.8573600000018,148.545740000002
"4",2103,55.0458850000009,95.3575400000018,150.682360000003
"5",2104,55.9891800000009,96.8577200000018,152.818980000002
"6",2105,56.932475000001,98.3579000000018,154.955600000002
"7",2106,57.8757700000008,99.8580800000013,157.092220000002
"8",2107,58.8190650000008,101.358260000001,159.228840000002
"9",2108,59.7623600000009,102.858440000001,161.365460000002
"10",2109,60.7056550000009,104.358620000001,163.502080000002
"11",2110,61.6489500000009,105.858800000001,165.638700000002
"12",2111,62.5922450000007,107.358980000001,167.775320000002
"13",2112,63.5355400000008,108.859160000001,169.911940000002
"14",2113,64.4788350000008,110.359340000001,172.048560000002
"15",2114,65.4221300000008,111.859520000001,174.185180000002
"16",2115,66.3654250000009,113.359700000001,176.321800000002
"17",2116,67.3087200000007,114.859880000001,178.458420000002
"18",2117,68.2520150000007,116.360060000001,180.595040000002
"19",2118,69.1953100000007,117.860240000001,182.731660000002
"20",2119,70.1386050000008,119.360420000001,184.868280000002
"21",2120,71.0819000000008,120.860600000001,187.004900000002
"22",2121,72.0251950000008,122.360780000001,189.141520000002
"23",2122,72.9684900000007,123.860960000001,191.278140000002
"24",2123,73.9117850000007,125.361140000001,193.414760000001
"25",2124,74.8550800000007,126.861320000001,195.551380000002
"26",2125,75.7983750000008,128.361500000001,197.688000000002
"27",2126,76.7416700000008,129.861680000001,199.824620000002
"28",2127,77.6849650000006,131.361860000001,201.961240000001
"29",2128,78.6282600000006,132.862040000001,204.097860000002
"30",2129,79.5715550000007,134.362220000001,206.234480000002
"31",2130,80.5148500000007,135.862400000001,208.371100000002
"32",2131,81.4581450000007,137.362580000001,210.507720000001
"33",2132,82.4014400000008,138.862760000001,212.644340000002
"34",2133,83.3447350000006,140.362940000001,214.780960000002
"35",2134,84.2880300000006,141.863120000001,216.917580000002
"36",2135,85.2313250000007,143.363300000001,219.054200000001
"37",2136,86.1746200000007,144.863480000001,221.190820000002
"38",2137,87.1179150000007,146.363660000001,223.327440000002
"39",2138,88.0612100000005,147.863840000001,225.464060000001
"40",2139,89.0045050000006,149.364020000001,227.600680000001
"41",2140,89.9478000000006,150.864200000001,229.737300000002
"42",2141,90.8910950000006,152.364380000001,231.873920000002
"43",2142,91.8343900000007,153.864560000001,234.010540000001
"44",2143,92.7776850000007,155.364740000001,236.147160000001
"45",2144,93.7209800000005,156.864920000001,238.283780000002
"46",2145,94.6642750000005,158.365100000001,240.420400000002
"47",2146,95.6075700000006,159.865280000001,242.557020000001
"48",2147,96.5508650000006,161.365460000001,244.693640000001
"49",2148,97.4941600000006,162.865640000001,246.830260000002
"50",2149,98.4374550000005,164.365820000001,248.966880000002
"51",2150,99.3807500000005,165.866000000001,251.103500000001
"52",2151,100.324045000001,167.366180000001,253.240120000001
"53",2152,101.267340000001,168.866360000001,255.376740000002
"54",2153,102.210635000001,170.366540000001,257.513360000002
"55",2154,103.15393,171.866720000001,259.649980000001
"56",2155,104.097225,173.366900000001,261.786600000001
"57",2156,105.04052,174.867080000001,263.923220000001
"58",2157,105.983815000001,176.367260000001,266.059840000002
"59",2158,106.927110000001,177.867440000001,268.196460000001
"60",2159,107.870405000001,179.367620000001,270.333080000001
"61",2160,108.8137,180.867800000001,272.469700000001
"62",2161,109.756995,182.367980000001,274.606320000001
"63",2162,110.70029,183.868160000001,276.742940000001
"64",2163,111.643585,185.368340000001,278.879560000001
"65",2164,112.586880000001,186.868520000001,281.016180000001
"66",2165,113.530175,188.368700000001,283.152800000001
"67",2166,114.47347,189.868880000001,285.289420000001
"68",2167,115.416765,191.369060000001,287.426040000001
"69",2168,116.36006,192.869240000001,289.562660000001
"70",2169,117.303355,194.369420000001,291.699280000001
"71",2170,118.24665,195.869600000001,293.835900000001
"72",2171,119.189945,197.369780000001,295.972520000001
"73",2172,120.13324,198.869960000001,298.109140000001
"74",2173,121.076535,200.370140000001,300.245760000001
"75",2174,122.01983,201.870320000001,302.382380000001
"76",2175,122.963125,203.370500000001,304.519000000001
"77",2176,123.90642,204.870680000001,306.655620000001
"78",2177,124.849715000001,206.370860000001,308.792240000001
"79",2178,125.793010000001,207.871040000001,310.928860000001
"80",2179,126.736305,209.371220000001,313.065480000001
"81",2180,127.6796,210.871400000001,315.202100000001
"82",2181,128.622895,212.371580000001,317.338720000001
"83",2182,129.56619,213.871760000001,319.475340000001
"84",2183,130.509485,215.371940000001,321.611960000001
"85",2184,131.45278,216.87212,323.74858
"86",2185,132.396075,218.3723,325.885200000001
"87",2186,133.33937,219.87248,328.021820000001
"88",2187,134.282665,221.37266,330.158440000001
"89",2188,135.22596,222.87284,332.29506
"90",2189,136.169255,224.37302,334.431680000001
"91",2190,137.11255,225.8732,336.568300000001
"92",2191,138.055845,227.37338,338.704920000001
"93",2192,138.99914,228.87356,340.84154
"94",2193,139.942435,230.37374,342.978160000001
"95",2194,140.88573,231.87392,345.114780000001
"96",2195,141.829025,233.3741,347.251400000001
"97",2196,142.77232,234.87428,349.38802
"98",2197,143.715615,236.37446,351.524640000001
"99",2198,144.65891,237.87464,353.661260000001
"100",2199,145.602205,239.37482,355.797880000001
"1",2200,146.545500000001,240.875,357.9345
"2",2201,147.63654,242.21607,359.45741
"3",2202,148.72758,243.55714,360.980320000001
"4",2203,149.81862,244.89821,362.50323
"5",2204,150.90966,246.23928,364.02614
"6",2205,152.000700000001,247.58035,365.549050000001
"7",2206,153.09174,248.921420000001,367.07196
"8",2207,154.182780000001,250.262490000001,368.59487
"9",2208,155.27382,251.60356,370.11778
"10",2209,156.364860000001,252.94463,371.64069
"11",2210,157.4559,254.2857,373.1636
"12",2211,158.546940000001,255.62677,374.68651
"13",2212,159.63798,256.96784,376.209420000001
"14",2213,160.72902,258.30891,377.73233
"15",2214,161.82006,259.649980000001,379.25524
"16",2215,162.9111,260.991050000001,380.778150000001
"17",2216,164.002140000001,262.33212,382.30106
"18",2217,165.09318,263.67319,383.82397
"19",2218,166.184220000001,265.01426,385.346880000001
"20",2219,167.27526,266.35533,386.86979
"21",2220,168.366300000001,267.6964,388.3927
"22",2221,169.45734,269.03747,389.91561
"23",2222,170.548380000001,270.37854,391.43852
"24",2223,171.63942,271.719610000001,392.96143
"25",2224,172.73046,273.060680000001,394.48434
"26",2225,173.8215,274.40175,396.007250000001
"27",2226,174.91254,275.74282,397.53016
"28",2227,176.003580000001,277.08389,399.05307
"29",2228,177.09462,278.42496,400.575980000001
"30",2229,178.185660000001,279.76603,402.09889
"31",2230,179.2767,281.1071,403.6218
"32",2231,180.367740000001,282.448170000001,405.14471
"33",2232,181.45878,283.789240000001,406.66762
"34",2233,182.54982,285.13031,408.19053
"35",2234,183.64086,286.47138,409.71344
"36",2235,184.7319,287.81245,411.23635
"37",2236,185.82294,289.15352,412.75926
"38",2237,186.91398,290.49459,414.28217
"39",2238,188.005020000001,291.83566,415.805080000001
"40",2239,189.09606,293.17673,417.32799
"41",2240,190.187100000001,294.517800000001,418.8509
"42",2241,191.27814,295.85887,420.373810000001
"43",2242,192.369180000001,297.19994,421.89672
"44",2243,193.46022,298.54101,423.41963
"45",2244,194.55126,299.88208,424.94254
"46",2245,195.6423,301.22315,426.46545
"47",2246,196.73334,302.56422,427.98836
"48",2247,197.82438,303.90529,429.51127
"49",2248,198.91542,305.246360000001,431.03418
"50",2249,200.006460000001,306.58743,432.55709
"51",2250,201.0975,307.9285,434.08
"52",2251,202.188540000001,309.26957,435.602910000001
"53",2252,203.27958,310.61064,437.12582
"54",2253,204.37062,311.95171,438.64873
"55",2254,205.46166,313.29278,440.17164
"56",2255,206.5527,314.63385,441.69455
"57",2256,207.64374,315.97492,443.21746
"58",2257,208.73478,317.315990000001,444.74037
"59",2258,209.82582,318.65706,446.26328
"60",2259,210.91686,319.99813,447.78619
"61",2260,212.007900000001,321.3392,449.3091
"62",2261,213.09894,322.68027,450.83201
"63",2262,214.189980000001,324.02134,452.35492
"64",2263,215.28102,325.36241,453.87783
"65",2264,216.37206,326.70348,455.40074
"66",2265,217.4631,328.044550000001,456.92365
"67",2266,218.55414,329.38562,458.44656
"68",2267,219.64518,330.72669,459.96947
"69",2268,220.73622,332.06776,461.49238
"70",2269,221.82726,333.40883,463.01529
"71",2270,222.9183,334.7499,464.5382
"72",2271,224.009340000001,336.09097,466.06111
"73",2272,225.10038,337.43204,467.58402
"74",2273,226.191420000001,338.77311,469.10693
"75",2274,227.28246,340.11418,470.62984
"76",2275,228.3735,341.45525,472.15275
"77",2276,229.46454,342.79632,473.67566
"78",2277,230.55558,344.13739,475.19857
"79",2278,231.64662,345.47846,476.72148
"80",2279,232.73766,346.81953,478.24439
"81",2280,233.8287,348.1606,479.7673
"82",2281,234.91974,349.50167,481.29021
"83",2282,236.010780000001,350.842740000001,482.81312
"84",2283,237.10182,352.18381,484.33603
"85",2284,238.19286,353.52488,485.85894
"86",2285,239.2839,354.86595,487.38185
"87",2286,240.37494,356.20702,488.90476
"88",2287,241.46598,357.54809,490.42767
"89",2288,242.55702,358.88916,491.95058
"90",2289,243.64806,360.23023,493.47349
"91",2290,244.7391,361.5713,494.9964
"92",2291,245.83014,362.91237,496.51931
"93",2292,246.92118,364.25344,498.04222
"94",2293,248.012220000001,365.59451,499.56513
"95",2294,249.10326,366.93558,501.08804
"96",2295,250.1943,368.27665,502.61095
"97",2296,251.28534,369.61772,504.13386
"98",2297,252.37638,370.95879,505.65677
"99",2298,253.46742,372.29986,507.17968
"100",2299,254.55846,373.64093,508.70259
"101",2300,255.6495,374.982,510.2255
